sequence,name,list_price,uom_id,tracking,type,categ_id,uom_po_id,sale_ok,purchase_ok,active,create_uid,write_uid,sale_line_warn,expense_policy,invoice_policy,volume,weight,has_configurable_attributes,create_date,write_date,available_in_pos,pos_categ_id,website_size_x,website_size_y,website_sequence,is_published,detailed_type,base_unit_count,allow_out_of_stock_order,available_threshold
1,Adidas AlphaBounce,18000.0,1,none,product,1,1,TRUE,TRUE,TRUE,2,2,no-message,no,delivery,0,0,TRUE,2021-12-08 14:44:19.921881,2021-12-08 14:44:19.921881,TRUE,16,1,1,10000,TRUE,product,0,TRUE,5
1,Adidas Alphaedge,18000.0,1,none,product,1,1,TRUE,TRUE,TRUE,2,2,no-message,no,delivery,0,0,TRUE,2021-12-08 14:44:19.921881,2021-12-08 14:44:19.921881,TRUE,16,1,1,10000,TRUE,product,0,TRUE,5
1,Adidas Alphaedge,18000.0,1,none,product,1,1,TRUE,TRUE,TRUE,2,2,no-message,no,delivery,0,0,TRUE,2021-12-08 14:44:19.921881,2021-12-08 14:44:19.921881,TRUE,15,1,1,10000,TRUE,product,0,TRUE,5
1,Adidas Bounce,18000.0,1,none,product,1,1,TRUE,TRUE,TRUE,2,2,no-message,no,delivery,0,0,TRUE,2021-12-08 14:44:19.921881,2021-12-08 14:44:19.921881,TRUE,15,1,1,10000,TRUE,product,0,TRUE,5
1,Adidas FYW,20000.0,1,none,product,1,1,TRUE,TRUE,TRUE,2,2,no-message,no,delivery,0,0,TRUE,2021-12-08 14:44:19.929740,2021-12-08 14:44:19.929740,TRUE,16,1,1,10000,TRUE,product,0,TRUE,5
