product_attribute_value_id,product_template_attribute_line_id
7,1
83,2
84,2
85,2
86,2
87,2
15,3
16,3
21,3
83,4
84,4
85,4
86,4
87,4
7,5
25,5
8,5
24,5
64,6
65,6
87,6
88,6
89,6
5,7
8,7
22,7
78,8
79,8
80,8
81,8
82,8
16,9
73,10
74,10
75,10
76,10
77,10
23,11
73,12
74,12
75,12
76,12
77,12
12,13
23,13
83,14
84,14
86,14
5,15
51,16
61,16
83,17
84,17
85,17
86,17
87,17
