id,barcode
1,
2,
3,20210500717394542
4,20210500717394640
5,20210500717394743
6,20210500717394844
7,20210500717394941
8,20210500717395042
9,20210500717395140
10,20210500717395243
11,20210500717395344
12,20210500717396941
13,20210500717397042
14,20210500717397140
15,20210500717397243
16,20210500717397344
