attribute_id,name,sequence
2,Adidas AlphaBounce,00717
4,Adidas AlphaBounce,00717
2,Adidas Alphaedge,01754
4,Adidas Alphaedge,01754
2,Adidas Alphaedge,01757
4,Adidas Alphaedge,01757
2,Adidas Bounce,01474
4,Adidas Bounce,01474
2,Adidas Bounce,01474
4,Adidas Bounce,01474
2,Adidas FYW,00687
4,Adidas FYW,00687
