attribute_id,product_tmpl_id,active,create_uid,create_date,write_uid,write_date
1,7,TRUE,2,2021-09-24 18:59:50.479620,2,2021-09-24 18:59:50.479636
3,7,TRUE,2,2021-09-24 18:59:50.479732,2,2021-09-24 18:59:50.479738
1,8,TRUE,2,2021-09-24 18:59:50.479857,2,2021-09-24 18:59:50.479863
3,8,TRUE,2,2021-09-24 18:59:50.479946,2,2021-09-24 18:59:50.479951
1,9,TRUE,2,2021-09-24 18:59:50.480036,2,2021-09-24 18:59:50.480041
3,9,TRUE,2,2021-09-24 18:59:50.480122,2,2021-09-24 18:59:50.480127
1,10,TRUE,2,2021-09-24 18:59:50.480208,2,2021-09-24 18:59:50.480213
3,10,TRUE,2,2021-09-24 18:59:50.480295,2,2021-09-24 18:59:50.480300
