product_product_id,product_template_attribute_value_id
8,1
8,4
9,1
9,5
10,1
10,6
11,1
11,7
12,1
12,8
13,2
13,4
14,2
14,5
15,2
15,6
16,2
16,7
17,2
17,8
18,3
18,4
19,3
19,5
20,3
20,6
21,3
21,7
22,3
22,8
23,9
23,11
24,9
24,12
25,9
25,13
26,9
26,14
27,9
27,15
28,10
28,11
29,10
29,12
30,10
30,13
31,10
31,14
32,10
32,15
33,16
33,18
34,16
34,19
35,16
35,20
36,16
36,21
37,16
37,22
38,17
38,18
39,17
39,19
40,17
40,20
41,17
41,21
42,17
42,22
43,23
43,30
44,23
44,31
45,23
45,32
46,23
46,33
47,23
47,34
48,24
48,30
49,24
49,31
50,24
50,32
51,24
51,33
52,24
52,34
53,25
53,30
54,25
54,31
55,25
55,32
56,25
56,33
57,25
57,34
58,26
58,30
59,26
59,31
60,26
60,32
61,26
61,33
62,26
62,34
63,27
63,30
64,27
64,31
65,27
65,32
66,27
66,33
67,27
67,34
68,28
68,30
69,28
69,31
70,28
70,32
71,28
71,33
72,28
72,34
73,29
73,30
74,29
74,31
75,29
75,32
76,29
76,33
77,29
77,34
