attribute_id,name,sequence,id
1,Adidas AlphaBounce,00717,1
3,Adidas AlphaBounce,00717,2
1,Adidas Bounce,01474,3
3,Adidas Bounce,01474,4
1,Adidas FYW,00687,5
3,Adidas FYW,00687,6
1,Adidas Future Craft,00739,7
3,Adidas Future Craft,00739,8
